[
  {
    "name": "Iphone X",
    "price": "500",
    "path": "./img/phone_x.jpg",
    "article": "1",
    "color": "White"
  },
  {
    "name": "Iphone XR",
    "price": "550",
    "path": "./img/phone_xr.jpg",
    "article": "2",
    "color": "Yellow"
  },
  {
    "name": "Iphone XS",
    "price": "600",
    "path": "./img/phone_xs.jpg",
    "article": "3",
    "color": "Dark grey"
  },
  {
    "name": "Iphone 11",
    "price": "650",
    "path": "./img/phone_11.jpg",
    "article": "4",
    "color": "Black"
  },
  {
    "name": "Iphone 11 PRO",
    "price": "700",
    "path": "./img/phone_11pro.jpg",
    "article": "5",
    "color": "Green"
  },
  {
    "name": "Iphone 11 PRO MAX",
    "price": "750",
    "path": "./img/phone_11promax.jpg",
    "article": "6",
    "color": "Dark blue"
  },
  {
    "name": "Iphone 12",
    "price": "760",
    "path": "./img/phone_12.jpg",
    "article": "7",
    "color": "Blue"
  },
  {
    "name": "Iphone 12 PRO",
    "price": "800",
    "path": "./img/phone_12pro.jpg",
    "article": "8",
    "color": "Midnight blue"
  },
  {
    "name": "Iphone 12 PRO MAX",
    "price": "900",
    "path": "./img/phone_12promax.jpg",
    "article": "9",
    "color": "Pearl white"
  },
  {
    "name": "Iphone 13",
    "price": "950",
    "path": "./img/phone_13.jpg",
    "article": "10",
    "color": "White"
  }
]
